<svg width="24" height="32" viewBox="0 0 24 32" fill="none" xmlns="http://www.w3.org/2000/svg">
<g id="Frame 101">
<path id="&#244;&#128;&#134;&#137;" d="M15.0503 25.7881C15.3535 26.0801 15.7129 26.2373 16.1396 26.2373C17.0156 26.2373 17.7119 25.541 17.7119 24.6763C17.7119 24.2495 17.5322 23.8452 17.2178 23.542L9.58105 16.1074L17.2178 8.69531C17.5322 8.38086 17.7119 7.97656 17.7119 7.56104C17.7119 6.69629 17.0156 6 16.1396 6C15.7017 6 15.3535 6.146 15.0503 6.43799L6.43652 14.8608C6.05469 15.2314 5.875 15.6357 5.86377 16.1187C5.86377 16.5903 6.04346 16.9946 6.43652 17.3765L15.0503 25.7881Z" fill="#0C73FE"/>
</g>
</svg>
